Jacobi iteration, size 10000 x 10000
------------------------
         CPU
------------------------
Iteration    Residual
       9   9994.859786
      19   9992.796826
      29   9991.205102
      39   9989.860231
      49   9988.673940
      59   9987.600629
      69   9986.613097
      79   9985.693569
      89   9984.829675
      99   9984.012394
Time = 81.782474 s, Bandwidth = 9.769819 GB/s
------------------------
         GPU
------------------------
Iteration    Residual
       9   9994.859786
      19   9992.796826
      29   9991.205102
      39   9989.860231
      49   9988.673940
      59   9987.600629
      69   9986.613097
      79   9985.693569
      89   9984.829675
      99   9984.012394
Time = 36.460537 s, Bandwidth = 21.914104 GB/s
