Number of doubles that fit in cache =    4480000 = 2116.601049^2
 Dimension Time (0)  Time (1)  Gflop/s(0)  Gflop/s(1) GB/s(0)   GB/s (1)  Error
        16   0.000016   0.000247   0.503999   0.033143  16.379968   0.314861 0.000000e+00
        64   0.000976   0.001826   0.537379   0.287182  17.263303   0.789751 6.708908e+01
       112   0.002787   0.008300   1.008248   0.338537  32.335964   0.604530 8.697797e+01
       160   0.007876   0.025069   1.040097   0.326780  33.335119   0.457492 1.327875e+02
       208   0.016102   0.052784   1.117714   0.340973  35.809832   0.406544 2.219193e+02
       256   0.029691   0.151775   1.130125   0.221080  36.199303   0.234898 2.411772e+02
       304   0.041145   0.294625   1.365643   0.190714  43.736500   0.185695 3.152771e+02
       352   0.063609   0.491024   1.371315   0.177646  43.913251   0.161496 3.692492e+02
       400   0.092423   0.695969   1.384936   0.183916  44.345649   0.158168 4.842901e+02
       448   0.156019   1.035391   1.152620   0.173684  36.904421   0.142669 4.967146e+02
       496   0.184144   1.392716   1.325310   0.175232  42.431289   0.138489 6.142137e+02
       544   0.244660   1.883478   1.316021   0.170949  42.132035   0.130726 7.570266e+02
       592   0.355721   2.293394   1.166503   0.180932  37.343875   0.134477 6.634478e+02
       640   0.421747   2.945921   1.243133   0.177971  39.795780   0.129029 8.291852e+02
       688   0.466677   2.250776   1.395657   0.289376  44.677256   0.205255 1.056525e+03
       736   0.655905   2.035784   1.215689   0.391680  38.915273   0.272473 1.243933e+03
       784   0.683193   3.074549   1.410700   0.313471  45.156793   0.214311 1.052511e+03
       832   0.944159   2.886966   1.219986   0.398987  39.051279   0.268549 1.584076e+03
       880   1.153545   3.611495   1.181526   0.377391  37.819576   0.250450 1.587973e+03
       928   1.335006   4.817207   1.197266   0.331802  38.322826   0.217387 1.499327e+03
       976   1.361938   5.302578   1.365281   0.350665  43.700179   0.227070 1.450977e+03
