Number of doubles that fit in cache =    4480000 = 2116.601049^2
 Dimension Time (0)  Time (1)  Gflop/s(0)  Gflop/s(1) GB/s(0)   GB/s (1)  Error
        40   0.000215   0.000520   0.595288   0.246301  19.168271   2.118190 0.000000e+00
        80   0.001527   0.002088   0.670757   0.490501  21.531290   2.158203 3.216201e+01
       120   0.003682   0.004640   0.938506   0.744764  30.094747   2.234293 7.494207e+01
       160   0.007704   0.011593   1.063341   0.706647  34.080064   1.625287 1.250448e+02
       200   0.014708   0.019357   1.087880   0.826567  34.855660   1.553945 2.225057e+02
       240   0.024764   0.031688   1.116478   0.872518  35.764499   1.396029 3.117915e+02
       280   0.039070   0.070631   1.123715   0.621596  35.990980   0.870234 3.070386e+02
       320   0.047657   0.130523   1.375161   0.502101  44.039539   0.627627 4.276291e+02
       360   0.078083   0.157490   1.195042   0.592496  38.267912   0.671495 6.819329e+02
       400   0.092198   0.254336   1.388320   0.503272  44.454004   0.523402 4.630147e+02
       440   0.133189   0.273918   1.279140   0.621966  40.955740   0.599349 1.282540e+03
       480   0.185628   0.410272   1.191546   0.539115  38.149320   0.485204 7.132136e+02
       520   0.230603   0.452245   1.219479   0.621822  39.042080   0.526157 7.924320e+02
       560   0.293922   0.550484   1.194984   0.638043  38.256565   0.510434 9.347512e+02
       600   0.428472   0.870726   1.008233   0.496138  32.276910   0.377065 7.730194e+02
       640   0.423376   1.312619   1.238352   0.399421  39.642739   0.289581 6.096146e+02
       680   1.222025   1.643988   0.514608   0.382523  16.473518   0.265516 1.204676e+03
       720   0.542995   1.217191   1.374775   0.613294  44.008067   0.408863 8.960023e+02
       760   0.687572   1.439054   1.276887   0.610090  40.873824   0.391742 1.008496e+03
       800   0.755787   1.656224   1.354879   0.618274  43.369666   0.383330 9.066848e+02
       840   0.899391   1.618993   1.318012   0.732188  42.188947   0.439313 1.056838e+03
       880   1.019440   1.995614   1.336953   0.682970  42.794654   0.397364 1.467868e+03
       920   1.156899   1.656767   1.346165   0.940009  43.088977   0.531309 1.170937e+03
       960   1.597675   2.223771   1.107529   0.795708  35.450165   0.437639 1.250946e+03
