Iteration    Residual     log10(residual)
         0      0.243902      -0.612784
       100      0.152478      -0.816792
       200      0.112589      -0.948502
       300      0.083848      -1.076508
       400      0.062494      -1.204163
       500      0.046582      -1.331784
       600      0.034721      -1.459403
       700      0.025881      -1.587021
       800      0.019291      -1.714639
       900      0.014379      -1.842256
Time   0.006896
Nl   0.006896
numproc   1
