Iteration    Residual     log10(residual)
         0      0.952381      -0.021189
       100      0.000001      -6.300317
       200      0.000000     -12.547227
       300      0.000000           -inf
       400      0.000000           -inf
       500      0.000000           -inf
       600      0.000000           -inf
       700      0.000000           -inf
       800      0.000000           -inf
       900      0.000000           -inf
Time   0.109203
Nl   0.109203
numproc  16
