Iteration    Residual     log10(residual)
         0      0.236111      -0.626884
       100      0.043618      -1.360332
       200      0.009437      -2.025187
       300      0.002042      -2.690041
       400      0.000442      -3.354895
       500      0.000096      -4.019749
       600      0.000021      -4.684603
       700      0.000004      -5.349457
       800      0.000001      -6.014311
       900      0.000000      -6.679165
Time   0.001280
Nl   0.001280
numproc   1
