Iteration    Residual     log10(residual)
         0      0.218750      -0.660052
       100      0.000072      -4.142998
       200      0.000000      -7.581464
       300      0.000000     -11.019929
       400      0.000000     -14.450064
       500      0.000000           -inf
       600      0.000000           -inf
       700      0.000000           -inf
       800      0.000000           -inf
       900      0.000000           -inf
Time   0.000161
Nl   0.000161
numproc   1
