Processor 0 array
2679108
4774013
7634491
11348183
35208237
35982052
36509810
39626072
42370872
47330235
57200604
61974617
62020104
66695421
67021653
85168034
101686197
109706989
128825607
129371015
140399898
156177751
157174029
167158983
191798092
194113296
195530874
205536043
206391510
218855772
228405060
230450071
234417911
243929679
246817738
270722678
274924980
277606093
284657631
300641406
303888678
308558416
328621155
334520402
344752345
348226788
351376956
354147321
359880476
363267735
370223753
370734179
371681234
375942026
381832371
385918597
385968245
396584041
399094731
402251348
402575052
403750587
406131280
423575747
431261400
441502236
447989670
469038276
469143394
473844789
474920300
475736363
481802822
485192973
486435584
493777262
497116540
505947187
532523208
534721051
544272860
549042678
573233057
578570254
584857736
584924206
585517341
589921654
597236818
599544861
600242430
612333520
615405640
616473894
619153002
619660149
636165021
637971738
643024411
643400284
650613877
658803436
659438464
675416439
680548880
690155165
699639191
708834503
723058190
730410857
735984805
