Processor 3 array
1499828762
1503087086
1504044128
1506667105
1513396344
1514445055
1526779780
1531595468
1532745613
1541084629
1544660672
1550818922
1560975513
1564804302
1576258770
1576491014
1589060711
1599141768
1613505999
1624802133
1625440976
1625712769
1644847352
1646346870
1649365985
1659952488
1661861942
1662540031
1665155288
1689688437
1693183860
1694567586
1694662195
1712644303
1714118156
1720864341
1729312328
1736826309
1739003614
1748087234
1761887433
1762604802
1767759919
1776453662
1778617291
1781867593
1787648986
1790067249
1792726133
1806516858
1807178132
1811604017
1812468132
1818011537
1821541600
1841762687
1843149083
1869198237
1871909723
1872328763
1886390834
1892768827
1901376839
1910370400
1918468394
1924676796
1933868676
1935412149
1937141034
1937279338
1945813560
1948317647
1951008513
1954510702
1955444477
1968008125
1969175149
1969916380
1972901261
1973665686
1973939557
1979650210
1986120344
1998236499
1998262177
2011634133
2017104772
2021131194
2021741387
2022376020
2034009864
2042778335
2054142946
2067332834
2067440597
2068019994
2071534555
2072212758
2072559629
2077608270
2079541040
2080638146
2096085453
2111373632
2112333293
2114065584
