Number of doubles that fit in cache =    4480000 = 2116.601049^2
 Dimension    Time(0)     Time(1)    Gflop/s(0)  Gflop/s(1) GB/s(0)   GB/s (1)  Error
       128   0.004935   0.003576   0.849957   1.173012  27.251735  37.609688 0.000000e+00
       256   0.031217   0.024437   1.074893   1.373125  34.430156  43.982922 0.000000e+00
       384   0.116745   0.118309   0.970027   0.957204  31.061069  30.650482 0.000000e+00
       512   0.238481   0.209263   1.125607   1.282764  36.036998  41.068484 0.000000e+00
       640   0.408964   0.423259   1.281990   1.238693  41.039714  39.653645 0.000000e+00
       768   0.818278   0.702748   1.107167   1.289182  35.440868  41.267241 0.000000e+00
       896   1.124159   1.117639   1.279753   1.287219  40.963533  41.202515 0.000000e+00
